project_1/project_1.sim/sim_1/behav/xsim/combinational_gates_muxed.vcd
$date
   Tue Oct  1 10:55:40 2024
$end
$version
  2018.2
$end
$timescale
  1ps
$end
$scope module combinational_gates_muxed_tb $end
$scope module UUT $end
$var wire 5 ! sw [4:0] $end
$var reg 1 " led $end
$var wire 1 # nand_out $end
$var wire 1 $ and_out $end
$var wire 1 % nor_out $end
$var wire 1 & or_out $end
$var wire 1 ' xor_out $end
$var wire 1 ( xnor_out $end
$var wire 1 ) buff_out $end
$var wire 1 * not_out $end
$var wire 8 + MuxIn [7:0] $end
$var wire 3 , SelectIn [2:0] $end
$upscope $end
$upscope $end
$enddefinitions $end
#0
$dumpvars
b0 !
1"
1#
0$
1%
0&
0'
1(
0)
1*
b10100101 +
b0 ,
$end
#5000
b1 !
0"
1#
0$
0%
1&
1'
0(
1)
0*
b10011010 +
#10000
b10 !
1"
1#
0$
0%
1&
1'
0(
0)
1*
b10011001 +
#15000
b11 !
0"
0#
1$
0%
1&
0'
1(
1)
0*
b1010110 +
#20000
b100 !
0"
1#
0$
1%
0&
0'
1(
0)
1*
b10100101 +
b1 ,
#25000
b101 !
1"
1#
0$
0%
1&
1'
0(
1)
0*
b10011010 +
#30000
b110 !
0"
1#
0$
0%
1&
1'
0(
0)
1*
b10011001 +
#35000
b111 !
1"
0#
1$
0%
1&
0'
1(
1)
0*
b1010110 +
#40000
b1000 !
1"
1#
0$
1%
0&
0'
1(
0)
1*
b10100101 +
b10 ,
#45000
b1001 !
0"
1#
0$
0%
1&
1'
0(
1)
0*
b10011010 +
#50000
b1010 !
0"
1#
0$
0%
1&
1'
0(
0)
1*
b10011001 +
#55000
b1011 !
1"
0#
1$
0%
1&
0'
1(
1)
0*
b1010110 +
#60000
b1100 !
0"
1#
0$
1%
0&
0'
1(
0)
1*
b10100101 +
b11 ,
#65000
b1101 !
1"
1#
0$
0%
1&
1'
0(
1)
0*
b10011010 +
#70000
b1110 !
1"
1#
0$
0%
1&
1'
0(
0)
1*
b10011001 +
#75000
b1111 !
0"
0#
1$
0%
1&
0'
1(
1)
0*
b1010110 +
#80000
b10000 !
0"
1#
0$
1%
0&
0'
1(
0)
1*
b10100101 +
b100 ,
#85000
b10001 !
1"
1#
0$
0%
1&
1'
0(
1)
0*
b10011010 +
#90000
b10010 !
1"
1#
0$
0%
1&
1'
0(
0)
1*
b10011001 +
#95000
b10011 !
1"
0#
1$
0%
1&
0'
1(
1)
0*
b1010110 +
#100000
b10100 !
1"
1#
0$
1%
0&
0'
1(
0)
1*
b10100101 +
b101 ,
#105000
b10101 !
0"
1#
0$
0%
1&
1'
0(
1)
0*
b10011010 +
#110000
b10110 !
0"
1#
0$
0%
1&
1'
0(
0)
1*
b10011001 +
#115000
b10111 !
0"
0#
1$
0%
1&
0'
1(
1)
0*
b1010110 +
#120000
b11000 !
0"
1#
0$
1%
0&
0'
1(
0)
1*
b10100101 +
b110 ,
#125000
b11001 !
0"
1#
0$
0%
1&
1'
0(
1)
0*
b10011010 +
#130000
b11010 !
0"
1#
0$
0%
1&
1'
0(
0)
1*
b10011001 +
#135000
b11011 !
1"
0#
1$
0%
1&
0'
1(
1)
0*
b1010110 +
#140000
b11100 !
1"
1#
0$
1%
0&
0'
1(
0)
1*
b10100101 +
b111 ,
#145000
b11101 !
1"
1#
0$
0%
1&
1'
0(
1)
0*
b10011010 +
#150000
b11110 !
1"
1#
0$
0%
1&
1'
0(
0)
1*
b10011001 +
#155000
b11111 !
0"
0#
1$
0%
1&
0'
1(
1)
0*
b1010110 +
